{
  "exp": 1681842011,
  "iat": 1681841711,
  "auth_time": 1681841670,
  "jti": "131f3f08-bcb3-47bb-abde-7af912b004d5",
  "iss": "http://localhost:8080/realms/riaiit00-organisation",
  "aud": "account",
  "sub": "1b56229b-9841-4c31-befe-6f1b3fca9ab8",
  "typ": "Bearer",
  "azp": "riaiit00-webshop",
  "nonce": "d965fb10-e7a8-463b-8fc3-813c24433791",
  "session_state": "831cdd25-ac9e-4bc3-89cf-3916af6e3d81",
  "acr": "0",
  "allowed-origins": [
    "*"
  ],
  "realm_access": {
    "roles": [
      "offline_access",
      "default-roles-riaiit00-organisation",
      "admin",
      "uma_authorization"
    ]
  },
  "resource_access": {
    "riaiit00-webshop": {
      "roles": [
        "admin"
      ]
    },
    "account": {
      "roles": [
        "manage-account",
        "manage-account-links",
        "view-profile"
      ]
    }
  },
  "scope": "openid profile email",
  "sid": "831cdd25-ac9e-4bc3-89cf-3916af6e3d81",
  "email_verified": true,
  "name": "Richmore Aidams",
  "preferred_username": "riaiit00",
  "given_name": "Richmore",
  "family_name": "Aidams",
  "email": "riaiit00@hs-esslingen.de"
}
